waveform-viewer/Externals/test.vcd
$date
	Tue Oct  5 09:25:07 2010
$end
$version
	ModelSim Version 6.5c
$end
$timescale
	1ns
$end
$scope module tb $end
$var wire 1 ! clock $end
$var wire 1 " reset $end
$var wire 1 # x $end
$var wire 1 $ y [3] $end
$var wire 1 % y [2] $end
$var wire 1 & y [1] $end
$var wire 1 ' y [0] $end
$var wire 1 ( z [31] $end
$var wire 1 ) z [30] $end
$var wire 1 * z [29] $end
$var wire 1 + z [28] $end
$var wire 1 , z [27] $end
$var wire 1 - z [26] $end
$var wire 1 . z [25] $end
$var wire 1 / z [24] $end
$var wire 1 0 z [23] $end
$var wire 1 1 z [22] $end
$var wire 1 2 z [21] $end
$var wire 1 3 z [20] $end
$var wire 1 4 z [19] $end
$var wire 1 5 z [18] $end
$var wire 1 6 z [17] $end
$var wire 1 7 z [16] $end
$var wire 1 8 z [15] $end
$var wire 1 9 z [14] $end
$var wire 1 : z [13] $end
$var wire 1 ; z [12] $end
$var wire 1 < z [11] $end
$var wire 1 = z [10] $end
$var wire 1 > z [9] $end
$var wire 1 ? z [8] $end
$var wire 1 @ z [7] $end
$var wire 1 A z [6] $end
$var wire 1 B z [5] $end
$var wire 1 C z [4] $end
$var wire 1 D z [3] $end
$var wire 1 E z [2] $end
$var wire 1 F z [1] $end
$var wire 1 G z [0] $end
$upscope $end
$enddefinitions $end
#0
$dumpvars
0!
1"
x#
0$
0%
0&
0'
0(
0)
0*
0+
0,
0-
0.
0/
00
01
02
03
04
05
06
07
08
09
0:
0;
0<
0=
0>
0?
0@
0A
0B
0C
0D
0E
0F
0G
$end
#1
1!
#2
0!
#3
1!
#4
0"
0!
#5
1!
#6
0!
#7
1!
#8
0!
#9
1!
#10
x$
x%
x&
x'
0!
#11
1!
#12
0!
#13
1!
#14
0!
#15
1!
#16
0!
#17
1!
#18
0!
#19
1!
#20
1#
0!
#21
1!
#22
0#
0!
#23
1#
1!
#24
0!
#25
0#
1!
#26
0!
#27
1!
#28
0!
#29
1!
#30
1/
12
16
17
19
1=
1?
1A
1B
1E
1F
1G
z'
z&
z%
z$
x#
0!
#31
1!
#32
0!
#33
1!
#34
0!
#35
1!
#36
0!
#37
1!
#38
0!
#39
1!
#40
0#
1$
1%
1&
1'
0!
#41
1!
#42
0!
#43
1!
#44
0!
#45
1!
#46
0!
#47
1!
#48
0!
#49
1!
#50
1(
1,
10
14
18
1<
1@
1D
z#
0!
#51
1!
#52
0!
#53
1!
#54
0!
#55
1!
#56
0!
#57
1!
#58
0!
#59
1!
#60
1)
1+
1-
1.
15
1:
1;
1>
0#
0/
06
09
0?
0!
